nome,cpf,email,password,matricula,setor_id,admin
Administrador,000.000.000-00,localhost_admin@sisconff.com,admin,00000,6,1
Alexandre Sampaio,114.979.697-94,allexonrails@gmail.com,controle,84190,6,1
Andre Azevedo,000.000.000-00,andreazevedo82@gmail.com,controle,000000,6,1